sesion03_chalckboard
…
El primer argumento siempre es el data frame.

Los argumentos subsecuentes dicen qué hacer con el data frame.

Siempre retorna un data frame.

No altera el data frame original.

Ejemplo de función {dplyr} en acción: seleccionar columna

Ver solamente country (países):

select(gapminder, country)

# A tibble: 10,545 × 1
   country            
   <fct>              
 1 Albania            
 2 Algeria            
 3 Angola             
 4 Antigua and Barbuda
 5 Argentina          
 6 Armenia            
 7 Aruba              
 8 Australia          
 9 Austria            
10 Azerbaijan         
# ℹ 10,535 more rows
…
Inicia con la función (un verbo): select()

Primer argumento: data frame con el que trabajaremos, gapminder

Segundo argumento: variable que queremos seleccionar, country

Reglas de las funciones de {dplyr} en acción

select(
  gapminder, 
  country
)

# A tibble: 10,545 × 1
   country            
   <fct>              
 1 Albania            
 2 Algeria            
 3 Angola             
 4 Antigua and Barbuda
 5 Argentina          
 6 Armenia            
 7 Aruba              
 8 Australia          
 9 Austria            
10 Azerbaijan         
# ℹ 10,535 more rows
…
