sesion02_chalkboard
…
data.tibble versus data.frame

Los data.tibble también son data.frame, pero con algunos poderes adicionales.

Así se ve un data tibble

covid_testing

# A tibble: 15,524 × 5
   subject_id fake_first_name fake_last_name gender pan_day
        <dbl> <chr>           <chr>          <chr>    <dbl>
 1       1412 jhezane         westerling     female       4
 2        533 penny           targaryen      female       7
 3       9134 grunt           rivers         male         7
 4       8518 melisandre      swyft          female       8
 5       8967 rolley          karstark       male         8
 6      11048 megga           karstark       female       8
 7        663 ithoke          targaryen      male         9
 8       2158 ravella         frey           female       9
 9       3794 styr            tyrell         male         9
10       4706 wynafryd        seaworth       male         9
# ℹ 15,514 more rows
…
